%!PS-Adobe-3.0 EPSF-3.0
%%Creator: cairo 1.14.6 (http://cairographics.org)
%%CreationDate: Sat Aug 27 08:48:39 2016
%%Pages: 1
%%DocumentData: Clean7Bit
%%LanguageLevel: 2
%%BoundingBox: 0 -1 835 295
%%EndComments
%%BeginProlog
save
50 dict begin
/q { gsave } bind def
/Q { grestore } bind def
/cm { 6 array astore concat } bind def
/w { setlinewidth } bind def
/J { setlinecap } bind def
/j { setlinejoin } bind def
/M { setmiterlimit } bind def
/d { setdash } bind def
/m { moveto } bind def
/l { lineto } bind def
/c { curveto } bind def
/h { closepath } bind def
/re { exch dup neg 3 1 roll 5 3 roll moveto 0 rlineto
      0 exch rlineto 0 rlineto closepath } bind def
/S { stroke } bind def
/f { fill } bind def
/f* { eofill } bind def
/n { newpath } bind def
/W { clip } bind def
/W* { eoclip } bind def
/BT { } bind def
/ET { } bind def
/pdfmark where { pop globaldict /?pdfmark /exec load put }
    { globaldict begin /?pdfmark /pop load def /pdfmark
    /cleartomark load def end } ifelse
/BDC { mark 3 1 roll /BDC pdfmark } bind def
/EMC { mark /EMC pdfmark } bind def
/cairo_store_point { /cairo_point_y exch def /cairo_point_x exch def } def
/Tj { show currentpoint cairo_store_point } bind def
/TJ {
  {
    dup
    type /stringtype eq
    { show } { -0.001 mul 0 cairo_font_matrix dtransform rmoveto } ifelse
  } forall
  currentpoint cairo_store_point
} bind def
/cairo_selectfont { cairo_font_matrix aload pop pop pop 0 0 6 array astore
    cairo_font exch selectfont cairo_point_x cairo_point_y moveto } bind def
/Tf { pop /cairo_font exch def /cairo_font_matrix where
      { pop cairo_selectfont } if } bind def
/Td { matrix translate cairo_font_matrix matrix concatmatrix dup
      /cairo_font_matrix exch def dup 4 get exch 5 get cairo_store_point
      /cairo_font where { pop cairo_selectfont } if } bind def
/Tm { 2 copy 8 2 roll 6 array astore /cairo_font_matrix exch def
      cairo_store_point /cairo_font where { pop cairo_selectfont } if } bind def
/g { setgray } bind def
/rg { setrgbcolor } bind def
/d1 { setcachedevice } bind def
%%EndProlog
%%BeginSetup
%%EndSetup
%%Page: 1 1
%%BeginPageSetup
%%PageBoundingBox: 0 -1 835 295
%%EndPageSetup
q 0 -1 835 296 rectclip q
0 0.2 0.6 rg
401.359 200.08 m 424.559 256.08 l 418.48 256.08 l 398.641 207.041 l 379.039
 256.08 l 372.879 256.08 l 396 200.08 l h
438.801 250.959 m 447.68 250.959 l 452.078 250.959 456.641 250.959 460.32
 248.322 c 463.602 246.002 465.52 242.322 465.602 238.322 c 465.68 233.439
 462.801 228.959 458.32 226.959 c 454.641 225.279 450.078 225.439 446.16
 225.439 c 444.48 225.439 l 463.52 200.08 l 470.48 200.08 l 454.719 220.959
 l 463.84 221.201 471.199 228.638 471.199 237.759 c 471.199 244.24 468.16
 250.002 462.48 253.279 c 457.762 255.92 451.84 256.002 446.559 256.002 
c 433.281 256.002 l 433.281 200.002 l 438.879 200.002 l h
481.359 256.08 m 486.961 256.08 l 486.961 200.08 l 481.359 200.08 l h
510.559 199.119 m 515.199 199.041 519.602 201.041 522.559 204.638 c 525.52
 208.322 525.281 211.439 525.602 215.841 c 525.602 256.08 l 520 256.08 l
 520 217.521 l 520 215.201 520.078 212.322 519.359 210.08 c 518.078 206.638
 514.801 204.4 511.199 204.478 c 505.922 204.478 501.68 208.002 501.281 
213.361 c 495.762 213.361 l 495.84 205.279 502.559 198.959 510.559 199.119
 c h
569.762 205.119 m 544.801 205.119 l 544.801 225.759 l 568.961 225.759 l
 568.961 230.798 l 544.801 230.798 l 544.801 250.959 l 569.762 250.959 l
 569.762 256.08 l 539.199 256.08 l 539.199 200.08 l 569.762 200.08 l h
410.398 141.759 m 410.398 137.361 410 132.88 407.281 129.279 c 402.879 
123.599 394.641 122.56 388.961 126.959 c 387.84 127.841 386.879 128.88 386.078
 130.08 c 383.84 133.599 383.52 137.841 383.52 141.841 c 383.52 175.841 
l 377.922 175.841 l 377.922 141.841 l 377.922 135.92 378.559 130.322 382.398
 125.521 c 386.078 121.201 391.441 118.798 397.039 118.88 c 402.801 118.798
 408.32 121.439 411.922 126.002 c 415.52 130.72 416.078 136.162 416.078 
141.841 c 416.078 175.841 l 410.48 175.841 l h
474.238 175.759 m 468.641 175.759 l 468.641 129.361 l 437.199 175.759 l
 429.68 175.759 l 429.68 119.841 l 435.281 119.841 l 435.281 169.041 l 468.641
 119.841 l 474.238 119.841 l h
487.84 175.759 m 493.441 175.759 l 493.441 119.759 l 487.84 119.759 l h
527.84 126.798 m 508.238 175.759 l 502.078 175.759 l 525.199 119.841 l 
530.48 119.841 l 553.762 175.759 l 547.602 175.759 l h
592.961 170.72 m 592.961 175.759 l 562.398 175.759 l 562.398 119.841 l 
592.961 119.841 l 592.961 124.88 l 568 124.88 l 568 145.521 l 592.16 145.521
 l 592.16 150.56 l 568 150.56 l 568 170.72 l h
643.039 157.521 m 643.039 164.002 640 169.759 634.32 173.041 c 629.602 
175.681 623.68 175.759 618.398 175.759 c 605.039 175.759 l 605.039 119.759
 l 610.641 119.759 l 610.641 170.72 l 619.52 170.72 l 623.922 170.72 628.48
 170.72 632.16 168.08 c 635.359 165.759 637.359 162.08 637.359 158.08 c 
637.441 153.201 634.559 148.72 630.078 146.72 c 626.398 145.041 621.84 145.201
 617.922 145.201 c 616.238 145.201 l 635.281 119.841 l 642.238 119.841 l
 626.48 140.72 l 635.68 140.959 642.961 148.4 643.039 157.521 c h
678.238 146.959 m 674.961 149.92 671.52 150.638 667.441 151.759 c 662 153.279
 656.398 154.88 656.398 161.599 c 656.32 166.959 660.641 171.279 665.922
 171.361 c 666 171.361 l 671.762 171.361 675.84 167.279 676.238 161.599 
c 682.078 161.599 l 682.16 170.162 675.199 176.72 666.719 176.72 c 657.922
 176.72 650.801 170.638 650.801 161.681 c 650.719 157.681 652.48 153.841
 655.52 151.201 c 658.32 148.798 661.922 147.841 665.359 146.959 c 668.559
 146.162 671.441 145.361 674 143.279 c 676.398 141.361 677.84 138.4 677.84
 135.361 c 677.84 128.959 672.641 124.322 666.238 124.322 c 660.078 124.4
 655.039 129.439 655.039 135.599 c 649.039 135.599 l 648.961 125.841 656.879
 118.959 666.398 118.959 c 675.52 118.959 683.441 126.08 683.441 135.279
 c 683.52 139.681 681.602 143.92 678.238 146.959 c h
693.039 175.759 m 698.641 175.759 l 698.641 119.759 l 693.039 119.759 l
 h
707.039 170.72 m 719.922 170.72 l 719.922 119.841 l 725.52 119.841 l 725.52
 170.72 l 738.238 170.72 l 738.238 175.759 l 707.039 175.759 l h
746.641 119.841 m 777.281 119.841 l 777.281 124.88 l 752.32 124.88 l 752.32
 145.521 l 776.48 145.521 l 776.48 150.56 l 752.32 150.56 l 752.32 170.72
 l 777.281 170.72 l 777.281 175.759 l 746.641 175.759 l h
789.441 175.759 m 795.039 175.759 l 795.039 119.759 l 789.441 119.759 l
 h
803.441 175.759 m 803.441 170.72 l 816.32 170.72 l 816.32 119.841 l 821.922
 119.841 l 821.922 170.72 l 834.641 170.72 l 834.641 175.759 l h
404.16 69.439 m 408 72.162 410.398 75.841 410.398 80.638 c 410.32 85.521
 407.84 90.002 403.84 92.72 c 400 95.201 395.602 95.521 391.121 95.521 c
 378 95.521 l 378 39.521 l 391.199 39.521 l 396.801 39.599 401.68 39.439
 406.559 42.56 c 410.879 45.361 413.441 50.24 413.441 55.361 c 413.359 61.759
 410 67.041 404.16 69.439 c h
383.52 90.4 m 390 90.4 l 393.359 90.56 397.359 90.478 400.238 88.72 c 402.879
 87.041 404.559 84.162 404.719 80.959 c 404.719 77.759 402.961 74.798 400.16
 73.119 c 396.961 71.361 393.121 71.439 389.52 71.439 c 383.441 71.439 l
 h
402.238 46.24 m 398.801 44.478 394.238 44.478 390.398 44.56 c 383.52 44.56
 l 383.52 66.478 l 389.441 66.478 l 393.121 66.478 397.281 66.56 400.719
 65.361 c 405.039 63.92 407.84 59.841 407.68 55.279 c 407.602 51.521 405.52
 48.08 402.238 46.24 c h
461.441 77.201 m 461.441 83.681 458.398 89.439 452.719 92.72 c 448 95.361
 442.078 95.439 436.801 95.439 c 423.441 95.439 l 423.441 39.439 l 429.039
 39.439 l 429.039 90.4 l 437.922 90.4 l 442.32 90.4 446.879 90.4 450.559
 87.759 c 453.762 85.439 455.762 81.759 455.762 77.759 c 455.84 72.88 452.961
 68.4 448.48 66.4 c 444.801 64.72 440.238 64.88 436.32 64.88 c 434.641 64.88
 l 453.68 39.521 l 460.641 39.521 l 444.879 60.4 l 454.078 60.638 461.441
 68.08 461.441 77.201 c h
504.16 61.521 m 504.16 57.119 503.762 52.638 501.039 49.041 c 496.641 43.361
 488.398 42.322 482.719 46.72 c 481.602 47.599 480.641 48.638 479.84 49.841
 c 477.602 53.361 477.281 57.599 477.281 61.599 c 477.281 95.599 l 471.68
 95.599 l 471.68 61.599 l 471.68 55.681 472.32 50.08 476.16 45.279 c 479.84
 40.959 485.199 38.56 490.801 38.638 c 496.559 38.56 502.078 41.201 505.68
 45.759 c 509.281 50.478 509.84 55.92 509.84 61.599 c 509.84 95.599 l 504.238
 95.599 l h
548.398 66.638 m 545.121 69.599 541.68 70.24 537.602 71.439 c 532.16 72.959
 526.559 74.56 526.559 81.279 c 526.48 86.638 530.801 90.959 536.078 91.041
 c 536.16 91.041 l 541.922 91.041 546 86.959 546.398 81.279 c 552.238 81.279
 l 552.32 89.841 545.359 96.4 536.879 96.4 c 528.078 96.4 520.961 90.322
 520.961 81.361 c 520.879 77.361 522.641 73.521 525.68 70.88 c 528.48 68.478
 532.078 67.521 535.52 66.638 c 538.719 65.841 541.602 65.041 544.16 62.959
 c 546.559 61.041 548 58.08 548 55.041 c 548 48.638 542.801 44.002 536.398
 44.002 c 530.238 44.08 525.199 49.119 525.199 55.279 c 519.199 55.279 l
 519.121 45.521 527.039 38.638 536.559 38.638 c 545.68 38.638 553.602 45.759
 553.602 55.041 c 553.68 59.361 551.762 63.681 548.398 66.638 c h
588.238 66.638 m 584.961 69.599 581.52 70.24 577.441 71.439 c 572 72.959
 566.398 74.56 566.398 81.279 c 566.32 86.638 570.641 90.959 575.922 91.041
 c 576 91.041 l 581.762 91.041 585.84 86.959 586.238 81.279 c 592.078 81.279
 l 592.16 89.841 585.199 96.4 576.719 96.4 c 567.922 96.4 560.801 90.322
 560.801 81.361 c 560.719 77.361 562.48 73.521 565.52 70.88 c 568.32 68.478
 571.922 67.521 575.359 66.638 c 578.559 65.841 581.441 65.041 584 62.959
 c 586.398 61.041 587.84 58.08 587.84 55.041 c 587.84 48.638 582.641 44.002
 576.238 44.002 c 570.078 44.08 565.039 49.119 565.039 55.279 c 559.121 
55.279 l 559.039 45.521 566.961 38.638 576.48 38.638 c 585.602 38.638 593.52
 45.759 593.52 55.041 c 593.52 59.439 591.602 63.681 588.238 66.638 c h
603.039 39.521 m 633.68 39.521 l 633.68 44.56 l 608.641 44.56 l 608.641
 65.201 l 632.801 65.201 l 632.801 70.24 l 608.641 70.24 l 608.641 90.4 
l 633.68 90.4 l 633.68 95.521 l 603.039 95.521 l h
651.359 95.521 m 645.762 95.521 l 645.762 39.521 l 674.559 39.521 l 674.559
 44.56 l 651.359 44.56 l h
651.359 95.521 m f
0 0.2 0.627451 rg
27.68 294.4 294.398 -294.398 re f
1 g
290.879 153.681 m 300.961 158.478 305.922 169.119 305.922 179.92 c 305.922
 192.72 297.922 205.041 286.559 210.798 c 275.039 216.56 262.398 216.002
 250 216.002 c 218.078 215.92 l 218.078 78.56 l 259.52 78.56 l 272.719 78.959
 286.641 79.681 297.68 87.681 c 308.32 95.681 314.398 107.041 314.398 120.4
 c 314.32 136.002 305.922 148.798 290.879 153.681 c 243.602 191.279 m 255.199
 191.279 l 260.559 191.279 268.16 191.599 271.922 190.002 c 276.961 187.92
 280.48 183.521 280.48 177.92 c 280.48 172.72 277.52 167.521 272.641 165.279
 c 267.84 163.041 260.719 163.201 255.359 163.201 c 243.602 163.201 l h
282.16 108.08 m 275.441 103.599 268.559 103.279 261.121 103.279 c 243.602
 103.279 l 243.602 138.4 l 261.68 138.4 l 267.84 138.4 273.922 138.56 279.762
 135.599 c 285.68 132.24 288.879 128.162 288.879 121.439 c 288.801 115.681
 286.801 111.279 282.16 108.08 c f
1 0.313726 0 rg
0 215.92 m 27.68 143.041 l 27.68 215.92 l h
0 215.92 m f
1 g
210.398 215.92 m 185.762 215.92 l 185.762 123.041 l 185.68 118.478 185.121
 114.08 183.121 110.002 c 179.762 104.162 173.602 99.92 166.398 99.119 c
 166.16 99.119 165.922 99.041 165.68 99.041 c 165.039 98.959 164.32 98.959
 163.68 98.959 c 163.039 98.959 162.32 98.959 161.68 99.041 c 161.441 99.041
 161.199 99.119 160.961 99.119 c 153.68 100.002 147.52 104.162 144.238 110.002
 c 142.16 114.08 141.68 118.478 141.602 123.041 c 141.602 215.92 l 110.398
 215.92 l 102.961 215.92 96.641 210.959 94.641 204.162 c 94.559 204.002 
94.559 203.841 94.559 203.841 c 63.68 114.322 l 63.602 114.322 l 27.602 
215.841 l 27.602 142.959 l 51.441 78.478 l 76.238 78.478 l 116.32 189.361
 l 116.641 190.24 l 116.879 190.24 l 116.879 128.162 l 116.879 118.322 117.52
 108.798 121.441 100.322 c 128.719 85.92 143.84 75.841 161.52 75.041 c 162.16
 75.041 162.879 74.959 163.52 74.959 c 164.238 74.959 164.879 74.959 165.52
 75.041 c 183.199 75.759 198.398 85.841 205.602 100.322 c 209.602 108.798
 210.16 118.322 210.16 128.162 c 210.16 215.92 l h
210.398 215.92 m f
Q Q
showpage
%%Trailer
end restore
%%EOF
